jaskirat/DCT standalone_on_tb/iter3/iter3.sim/sim_1/behav/xsim/dump.vcd
$date
   Wed Apr  2 15:44:01 2025
$end
$version
  2019.2
$end
$timescale
  1ps
$end
$scope module tb_matrix_mult $end
$var reg 1 ! clk $end
$var reg 1 " reset $end
$var reg 1 # enable $end
$var reg 1024 $ A [1023:0] $end
$var reg 1024 % B [1023:0] $end
$var wire 1024 & C [1023:0] $end
$var wire 1 ' done $end
$var integer 32 ( i $end
$var integer 32 ) j $end
$scope module dut $end
$var wire 1 * clk $end
$var wire 1 + reset $end
$var wire 1 , enable $end
$var wire 1024 - A [1023:0] $end
$var wire 1024 . B [1023:0] $end
$var reg 1024 / C [1023:0] $end
$var reg 1 0 done $end
$var reg 2 1 state [1:0] $end
$var reg 4 2 row [3:0] $end
$var reg 4 3 col [3:0] $end
$var reg 4 4 k [3:0] $end
$var integer 32 5 i $end
$var integer 32 6 j $end
$var parameter 2 7 IDLE [1:0] $end
$var parameter 2 8 LOAD [1:0] $end
$var parameter 2 9 CALC [1:0] $end
$var parameter 2 : DONE [1:0] $end
$upscope $end
$upscope $end
$enddefinitions $end
#0
$dumpvars
0!
1"
0#
b0 $
b0 %
bx &
0'
bx (
bx )
0*
1+
0,
b0 -
b0 .
bx /
00
b0 1
b0 2
b0 3
b0 4
b1000 5
b1000 6
b0 7
b1 8
b10 9
b11 :
$end
#100
1!
1*
b1000 5
b1000 6
#200
0!
0*
#300
1!
1*
b1000 5
b1000 6
#400
0!
0*
#500
1!
1*
b1000 5
b1000 6
#600
0!
0*
#700
1!
1*
b1000 5
b1000 6
#800
0!
0*
#900
1!
1*
b1000 5
b1000 6
#1000
0!
0*
#1100
1!
1*
b1000 5
b1000 6
#1200
0!
0*
#1300
1!
1*
b1000 5
b1000 6
#1400
0!
0*
#1500
1!
1*
b1000 5
b1000 6
#1600
0!
0*
#1700
1!
1*
b1000 5
b1000 6
#1800
0!
0*
#1900
1!
1*
b1000 5
b1000 6
#2000
0!
0*
#2100
1!
1*
b1000 5
b1000 6
#2200
0!
0*
#2300
1!
1*
b1000 5
b1000 6
#2400
0!
0*
#2500
1!
1*
b1000 5
b1000 6
#2600
0!
0*
#2700
1!
1*
b1000 5
b1000 6
#2800
0!
0*
#2900
1!
1*
b1000 5
b1000 6
#3000
0!
0*
#3100
1!
1*
b1000 5
b1000 6
#3200
0!
0*
#3300
1!
1*
b1000 5
b1000 6
#3400
0!
0*
#3500
1!
1*
b1000 5
b1000 6
#3600
0!
0*
#3700
1!
1*
b1000 5
b1000 6
#3800
0!
0*
#3900
1!
1*
b1000 5
b1000 6
#4000
0!
0*
#4100
1!
1*
b1000 5
b1000 6
#4200
0!
0*
#4300
1!
1*
b1000 5
b1000 6
#4400
0!
0*
#4500
1!
1*
b1000 5
b1000 6
#4600
0!
0*
#4700
1!
1*
b1000 5
b1000 6
#4800
0!
0*
#4900
1!
1*
b1000 5
b1000 6
#5000
0!
0*
#5100
1!
1*
b1000 5
b1000 6
#5200
0!
0*
#5300
1!
1*
b1000 5
b1000 6
#5400
0!
0*
#5500
1!
1*
b1000 5
b1000 6
#5600
0!
0*
#5700
1!
1*
b1000 5
b1000 6
#5800
0!
0*
#5900
1!
1*
b1000 5
b1000 6
#6000
0!
0*
#6100
1!
1*
b1000 5
b1000 6
#6200
0!
0*
#6300
1!
1*
b1000 5
b1000 6
#6400
0!
0*
#6500
1!
1*
b1000 5
b1000 6
#6600
0!
0*
#6700
1!
1*
b1000 5
b1000 6
#6800
0!
0*
#6900
1!
1*
b1000 5
b1000 6
#7000
0!
0*
#7100
1!
1*
b1000 5
b1000 6
#7200
0!
0*
#7300
1!
1*
b1000 5
b1000 6
#7400
0!
0*
#7500
1!
1*
b1000 5
b1000 6
#7600
0!
0*
#7700
1!
1*
b1000 5
b1000 6
#7800
0!
0*
#7900
1!
1*
b1000 5
b1000 6
#8000
0!
0*
#8100
1!
1*
b1000 5
b1000 6
#8200
0!
0*
#8300
1!
1*
b1000 5
b1000 6
#8400
0!
0*
#8500
1!
1*
b1000 5
b1000 6
#8600
0!
0*
#8700
1!
1*
b1000 5
b1000 6
#8800
0!
0*
#8900
1!
1*
b1000 5
b1000 6
#9000
0!
0*
#9100
1!
1*
b1000 5
b1000 6
#9200
0!
0*
#9300
1!
1*
b1000 5
b1000 6
#9400
0!
0*
#9500
1!
1*
b1000 5
b1000 6
#9600
0!
0*
#9700
1!
1*
b1000 5
b1000 6
#9800
0!
0*
#9900
1!
1*
b1000 5
b1000 6
#10000
0!
0*
#10100
1!
1*
b1000 5
b1000 6
#10200
0!
0*
#10300
1!
1*
b1000 5
b1000 6
#10400
0!
0*
#10500
1!
1*
b1000 5
b1000 6
#10600
0!
0*
#10700
1!
1*
b1000 5
b1000 6
#10800
0!
0*
#10900
1!
1*
b1000 5
b1000 6
#11000
0!
0*
#11100
1!
1*
b1000 5
b1000 6
#11200
0!
0*
#11300
1!
1*
b1000 5
b1000 6
#11400
0!
0*
#11500
1!
1*
b1000 5
b1000 6
#11600
0!
0*
#11700
1!
1*
b1000 5
b1000 6
#11800
0!
0*
#11900
1!
1*
b1000 5
b1000 6
#12000
0!
0*
#12100
1!
1*
b1000 5
b1000 6
#12200
0!
0*
#12300
1!
1*
b1000 5
b1000 6
#12400
0!
0*
#12500
1!
1*
b1000 5
b1000 6
#12600
0!
0*
#12700
1!
1*
b1000 5
b1000 6
#12800
0!
0*
#12900
1!
1*
b1000 5
b1000 6
#13000
0!
0*
#13100
1!
1*
b1000 5
b1000 6
#13200
0!
0*
#13300
1!
1*
b1000 5
b1000 6
#13400
0!
0*
#13500
1!
1*
b1000 5
b1000 6
#13600
0!
0*
#13700
1!
1*
b1000 5
b1000 6
#13800
0!
0*
#13900
1!
1*
b1000 5
b1000 6
#14000
0!
0*
#14100
1!
1*
b1000 5
b1000 6
#14200
0!
0*
#14300
1!
1*
b1000 5
b1000 6
#14400
0!
0*
#14500
1!
1*
b1000 5
b1000 6
#14600
0!
0*
#14700
1!
1*
b1000 5
b1000 6
#14800
0!
0*
#14900
1!
1*
b1000 5
b1000 6
#15000
0!
0*
#15100
1!
1*
b1000 5
b1000 6
#15200
0!
0*
#15300
1!
1*
b1000 5
b1000 6
#15400
0!
0*
#15500
1!
1*
b1000 5
b1000 6
#15600
0!
0*
#15700
1!
1*
b1000 5
b1000 6
#15800
0!
0*
#15900
1!
1*
b1000 5
b1000 6
#16000
0!
0*
#16100
1!
1*
b1000 5
b1000 6
#16200
0!
0*
#16300
1!
1*
b1000 5
b1000 6
#16400
0!
0*
#16500
1!
1*
b1000 5
b1000 6
#16600
0!
0*
#16700
1!
1*
b1000 5
b1000 6
#16800
0!
0*
#16900
1!
1*
b1000 5
b1000 6
#17000
0!
0*
#17100
1!
1*
b1000 5
b1000 6
#17200
0!
0*
#17300
1!
1*
b1000 5
b1000 6
#17400
0!
0*
#17500
1!
1*
b1000 5
b1000 6
#17600
0!
0*
#17700
1!
1*
b1000 5
b1000 6
#17800
0!
0*
#17900
1!
1*
b1000 5
b1000 6
#18000
0!
0*
#18100
1!
1*
b1000 5
b1000 6
#18200
0!
0*
#18300
1!
1*
b1000 5
b1000 6
#18400
0!
0*
#18500
1!
1*
b1000 5
b1000 6
#18600
0!
0*
#18700
1!
1*
b1000 5
b1000 6
#18800
0!
0*
#18900
1!
1*
b1000 5
b1000 6
#19000
0!
0*
#19100
1!
1*
b1000 5
b1000 6
#19200
0!
0*
#19300
1!
1*
b1000 5
b1000 6
#19400
0!
0*
#19500
1!
1*
b1000 5
b1000 6
#19600
0!
0*
#19700
1!
1*
b1000 5
b1000 6
#19800
0!
0*
#19900
1!
1*
b1000 5
b1000 6
#20000
0!
0*
#20100
1!
1*
b1000 5
b1000 6
#20200
0!
0*
#20300
1!
1*
b1000 5
b1000 6
#20400
0!
0*
#20500
1!
1*
b1000 5
b1000 6
#20600
0!
0*
#20700
1!
1*
b1000 5
b1000 6
#20800
0!
0*
#20900
1!
1*
b1000 5
b1000 6
#21000
0!
0*
#21100
1!
1*
b1000 5
b1000 6
#21200
0!
0*
#21300
1!
1*
b1000 5
b1000 6
#21400
0!
0*
#21500
1!
1*
b1000 5
b1000 6
#21600
0!
0*
#21700
1!
1*
b1000 5
b1000 6
#21800
0!
0*
#21900
1!
1*
b1000 5
b1000 6
#22000
0!
0*
#22100
1!
1*
b1000 5
b1000 6
#22200
0!
0*
#22300
1!
1*
b1000 5
b1000 6
#22400
0!
0*
#22500
1!
1*
b1000 5
b1000 6
#22600
0!
0*
#22700
1!
1*
b1000 5
b1000 6
#22800
0!
0*
#22900
1!
1*
b1000 5
b1000 6
#23000
0!
0*
#23100
1!
1*
b1000 5
b1000 6
#23200
0!
0*
#23300
1!
1*
b1000 5
b1000 6
#23400
0!
0*
#23500
1!
1*
b1000 5
b1000 6
#23600
0!
0*
#23700
1!
1*
b1000 5
b1000 6
#23800
0!
0*
#23900
1!
1*
b1000 5
b1000 6
#24000
0!
0*
#24100
1!
1*
b1000 5
b1000 6
#24200
0!
0*
#24300
1!
1*
b1000 5
b1000 6
#24400
0!
0*
#24500
1!
1*
b1000 5
b1000 6
#24600
0!
0*
#24700
1!
1*
b1000 5
b1000 6
#24800
0!
0*
#24900
1!
1*
b1000 5
b1000 6
#25000
0!
0*
#25100
1!
1*
b1000 5
b1000 6
#25200
0!
0*
#25300
1!
1*
b1000 5
b1000 6
#25400
0!
0*
#25500
1!
1*
b1000 5
b1000 6
#25600
0!
0*
#25700
1!
1*
b1000 5
b1000 6
#25800
0!
0*
#25900
1!
1*
b1000 5
b1000 6
#26000
0!
0*
#26100
1!
1*
b1000 5
b1000 6
#26200
0!
0*
#26300
1!
1*
b1000 5
b1000 6
#26400
0!
0*
#26500
1!
1*
b1000 5
b1000 6
#26600
0!
0*
#26700
1!
1*
b1000 5
b1000 6
#26800
0!
0*
#26900
1!
1*
b1000 5
b1000 6
#27000
0!
0*
#27100
1!
1*
b1000 5
b1000 6
#27200
0!
0*
#27300
1!
1*
b1000 5
b1000 6
#27400
0!
0*
#27500
1!
1*
b1000 5
b1000 6
#27600
0!
0*
#27700
1!
1*
b1000 5
b1000 6
#27800
0!
0*
#27900
1!
1*
b1000 5
b1000 6
#28000
0!
0*
#28100
1!
1*
b1000 5
b1000 6
#28200
0!
0*
#28300
1!
1*
b1000 5
b1000 6
#28400
0!
0*
#28500
1!
1*
b1000 5
b1000 6
#28600
0!
0*
#28700
1!
1*
b1000 5
b1000 6
#28800
0!
0*
#28900
1!
1*
b1000 5
b1000 6
#29000
0!
0*
#29100
1!
1*
b1000 5
b1000 6
#29200
0!
0*
#29300
1!
1*
b1000 5
b1000 6
#29400
0!
0*
#29500
1!
1*
b1000 5
b1000 6
#29600
0!
0*
#29700
1!
1*
b1000 5
b1000 6
#29800
0!
0*
#29900
1!
1*
b1000 5
b1000 6
#30000
0!
0*
#30100
1!
1*
b1000 5
b1000 6
#30200
0!
0*
#30300
1!
1*
b1000 5
b1000 6
#30400
0!
0*
#30500
1!
1*
b1000 5
b1000 6
#30600
0!
0*
#30700
1!
1*
b1000 5
b1000 6
#30800
0!
0*
#30900
1!
1*
b1000 5
b1000 6
#31000
0!
0*
#31100
1!
1*
b1000 5
b1000 6
#31200
0!
0*
#31300
1!
1*
b1000 5
b1000 6
#31400
0!
0*
#31500
1!
1*
b1000 5
b1000 6
#31600
0!
0*
#31700
1!
1*
b1000 5
b1000 6
#31800
0!
0*
#31900
1!
1*
b1000 5
b1000 6
#32000
0!
0*
#32100
1!
1*
b1000 5
b1000 6
#32200
0!
0*
#32300
1!
1*
b1000 5
b1000 6
#32400
0!
0*
#32500
1!
1*
b1000 5
b1000 6
#32600
0!
0*
#32700
1!
1*
b1000 5
b1000 6
#32800
0!
0*
#32900
1!
1*
b1000 5
b1000 6
#33000
0!
0*
#33100
1!
1*
b1000 5
b1000 6
#33200
0!
0*
#33300
1!
1*
b1000 5
b1000 6
#33400
0!
0*
#33500
1!
1*
b1000 5
b1000 6
#33600
0!
0*
#33700
1!
1*
b1000 5
b1000 6
#33800
0!
0*
#33900
1!
1*
b1000 5
b1000 6
#34000
0!
0*
#34100
1!
1*
b1000 5
b1000 6
#34200
0!
0*
#34300
1!
1*
b1000 5
b1000 6
#34400
0!
0*
#34500
1!
1*
b1000 5
b1000 6
#34600
0!
0*
#34700
1!
1*
b1000 5
b1000 6
#34800
0!
0*
#34900
1!
1*
b1000 5
b1000 6
#35000
0!
0*
#35100
1!
1*
b1000 5
b1000 6
#35200
0!
0*
#35300
1!
1*
b1000 5
b1000 6
#35400
0!
0*
#35500
1!
1*
b1000 5
b1000 6
#35600
0!
0*
#35700
1!
1*
b1000 5
b1000 6
#35800
0!
0*
#35900
1!
1*
b1000 5
b1000 6
#36000
0!
0*
#36100
1!
1*
b1000 5
b1000 6
#36200
0!
0*
#36300
1!
1*
b1000 5
b1000 6
#36400
0!
0*
#36500
1!
1*
b1000 5
b1000 6
#36600
0!
0*
#36700
1!
1*
b1000 5
b1000 6
#36800
0!
0*
#36900
1!
1*
b1000 5
b1000 6
#37000
0!
0*
#37100
1!
1*
b1000 5
b1000 6
#37200
0!
0*
#37300
1!
1*
b1000 5
b1000 6
#37400
0!
0*
#37500
1!
1*
b1000 5
b1000 6
#37600
0!
0*
#37700
1!
1*
b1000 5
b1000 6
#37800
0!
0*
#37900
1!
1*
b1000 5
b1000 6
#38000
0!
0*
#38100
1!
1*
b1000 5
b1000 6
#38200
0!
0*
#38300
1!
1*
b1000 5
b1000 6
#38400
0!
0*
#38500
1!
1*
b1000 5
b1000 6
#38600
0!
0*
#38700
1!
1*
b1000 5
b1000 6
#38800
0!
0*
#38900
1!
1*
b1000 5
b1000 6
#39000
0!
0*
#39100
1!
1*
b1000 5
b1000 6
#39200
0!
0*
#39300
1!
1*
b1000 5
b1000 6
#39400
0!
0*
#39500
1!
1*
b1000 5
b1000 6
#39600
0!
0*
#39700
1!
1*
b1000 5
b1000 6
#39800
0!
0*
#39900
1!
1*
b1000 5
b1000 6
#40000
0!
0*
#40100
1!
1*
b1000 5
b1000 6
#40200
0!
0*
#40300
1!
1*
b1000 5
b1000 6
#40400
0!
0*
#40500
1!
1*
b1000 5
b1000 6
#40600
0!
0*
#40700
1!
1*
b1000 5
b1000 6
#40800
0!
0*
#40900
1!
1*
b1000 5
b1000 6
#41000
0!
0*
#41100
1!
1*
b1000 5
b1000 6
#41200
0!
0*
#41300
1!
1*
b1000 5
b1000 6
#41400
0!
0*
#41500
1!
1*
b1000 5
b1000 6
#41600
0!
0*
#41700
1!
1*
b1000 5
b1000 6
#41800
0!
0*
#41900
1!
1*
b1000 5
b1000 6
#42000
0!
0*
#42100
1!
1*
b1000 5
b1000 6
#42200
0!
0*
#42300
1!
1*
b1000 5
b1000 6
#42400
0!
0*
#42500
1!
1*
b1000 5
b1000 6
#42600
0!
0*
#42700
1!
1*
b1000 5
b1000 6
#42800
0!
0*
#42900
1!
1*
b1000 5
b1000 6
#43000
0!
0*
#43100
1!
1*
b1000 5
b1000 6
#43200
0!
0*
#43300
1!
1*
b1000 5
b1000 6
#43400
0!
0*
#43500
1!
1*
b1000 5
b1000 6
#43600
0!
0*
#43700
1!
1*
b1000 5
b1000 6
#43800
0!
0*
#43900
1!
1*
b1000 5
b1000 6
#44000
0!
0*
#44100
1!
1*
b1000 5
b1000 6
#44200
0!
0*
#44300
1!
1*
b1000 5
b1000 6
#44400
0!
0*
#44500
1!
1*
b1000 5
b1000 6
#44600
0!
0*
#44700
1!
1*
b1000 5
b1000 6
#44800
0!
0*
#44900
1!
1*
b1000 5
b1000 6
#45000
0!
0*
#45100
1!
1*
b1000 5
b1000 6
#45200
0!
0*
#45300
1!
1*
b1000 5
b1000 6
#45400
0!
0*
#45500
1!
1*
b1000 5
b1000 6
#45600
0!
0*
#45700
1!
1*
b1000 5
b1000 6
#45800
0!
0*
#45900
1!
1*
b1000 5
b1000 6
#46000
0!
0*
#46100
1!
1*
b1000 5
b1000 6
#46200
0!
0*
#46300
1!
1*
b1000 5
b1000 6
#46400
0!
0*
#46500
1!
1*
b1000 5
b1000 6
#46600
0!
0*
#46700
1!
1*
b1000 5
b1000 6
#46800
0!
0*
#46900
1!
1*
b1000 5
b1000 6
#47000
0!
0*
#47100
1!
1*
b1000 5
b1000 6
#47200
0!
0*
#47300
1!
1*
b1000 5
b1000 6
#47400
0!
0*
#47500
1!
1*
b1000 5
b1000 6
#47600
0!
0*
#47700
1!
1*
b1000 5
b1000 6
#47800
0!
0*
#47900
1!
1*
b1000 5
b1000 6
#48000
0!
0*
#48100
1!
1*
b1000 5
b1000 6
#48200
0!
0*
#48300
1!
1*
b1000 5
b1000 6
#48400
0!
0*
#48500
1!
1*
b1000 5
b1000 6
#48600
0!
0*
#48700
1!
1*
b1000 5
b1000 6
#48800
0!
0*
#48900
1!
1*
b1000 5
b1000 6
#49000
0!
0*
#49100
1!
1*
b1000 5
b1000 6
#49200
0!
0*
#49300
1!
1*
b1000 5
b1000 6
#49400
0!
0*
#49500
1!
1*
b1000 5
b1000 6
#49600
0!
0*
#49700
1!
1*
b1000 5
b1000 6
#49800
0!
0*
#49900
1!
1*
b1000 5
b1000 6
#50000
0!
0*
#50100
1!
1*
b1000 5
b1000 6
#50200
0!
0*
#50300
1!
1*
b1000 5
b1000 6
#50400
0!
0*
#50500
1!
1*
b1000 5
b1000 6
#50600
0!
0*
#50700
1!
1*
b1000 5
b1000 6
#50800
0!
0*
#50900
1!
1*
b1000 5
b1000 6
#51000
0!
0*
#51100
1!
1*
b1000 5
b1000 6
#51200
0!
0*
#51300
1!
1*
b1000 5
b1000 6
#51400
0!
0*
#51500
1!
1*
b1000 5
b1000 6
#51600
0!
0*
#51700
1!
1*
b1000 5
b1000 6
#51800
0!
0*
#51900
1!
1*
b1000 5
b1000 6
#52000
0!
0*
#52100
1!
1*
b1000 5
b1000 6
#52200
0!
0*
#52300
1!
1*
b1000 5
b1000 6
#52400
0!
0*
#52500
1!
1*
b1000 5
b1000 6
#52600
0!
0*
#52700
1!
1*
b1000 5
b1000 6
#52800
0!
0*
#52900
1!
1*
b1000 5
b1000 6
#53000
0!
0*
#53100
1!
1*
b1000 5
b1000 6
#53200
0!
0*
#53300
1!
1*
b1000 5
b1000 6
#53400
0!
0*
#53500
1!
1*
b1000 5
b1000 6
#53600
0!
0*
#53700
1!
1*
b1000 5
b1000 6
#53800
0!
0*
#53900
1!
1*
b1000 5
b1000 6
#54000
0!
0*
#54100
1!
1*
b1000 5
b1000 6
#54200
0!
0*
#54300
1!
1*
b1000 5
b1000 6
#54400
0!
0*
#54500
1!
1*
b1000 5
b1000 6
#54600
0!
0*
#54700
1!
1*
b1000 5
b1000 6
#54800
0!
0*
#54900
1!
1*
b1000 5
b1000 6
#55000
0!
0*
#55100
1!
1*
b1000 5
b1000 6
#55200
0!
0*
#55300
1!
1*
b1000 5
b1000 6
#55400
0!
0*
#55500
1!
1*
b1000 5
b1000 6
#55600
0!
0*
#55700
1!
1*
b1000 5
b1000 6
#55800
0!
0*
#55900
1!
1*
b1000 5
b1000 6
#56000
0!
0*
#56100
1!
1*
b1000 5
b1000 6
#56200
0!
0*
#56300
1!
1*
b1000 5
b1000 6
#56400
0!
0*
#56500
1!
1*
b1000 5
b1000 6
#56600
0!
0*
#56700
1!
1*
b1000 5
b1000 6
#56800
0!
0*
#56900
1!
1*
b1000 5
b1000 6
#57000
0!
0*
#57100
1!
1*
b1000 5
b1000 6
#57200
0!
0*
#57300
1!
1*
b1000 5
b1000 6
#57400
0!
0*
#57500
1!
1*
b1000 5
b1000 6
#57600
0!
0*
#57700
1!
1*
b1000 5
b1000 6
#57800
0!
0*
#57900
1!
1*
b1000 5
b1000 6
#58000
0!
0*
#58100
1!
1*
b1000 5
b1000 6
#58200
0!
0*
#58300
1!
1*
b1000 5
b1000 6
#58400
0!
0*
#58500
1!
1*
b1000 5
b1000 6
#58600
0!
0*
#58700
1!
1*
b1000 5
b1000 6
#58800
0!
0*
#58900
1!
1*
b1000 5
b1000 6
#59000
0!
0*
#59100
1!
1*
b1000 5
b1000 6
#59200
0!
0*
#59300
1!
1*
b1000 5
b1000 6
#59400
0!
0*
#59500
1!
1*
b1000 5
b1000 6
#59600
0!
0*
#59700
1!
1*
b1000 5
b1000 6
#59800
0!
0*
#59900
1!
1*
b1000 5
b1000 6
#60000
0!
0*
#60100
1!
1*
b1000 5
b1000 6
#60200
0!
0*
#60300
1!
1*
b1000 5
b1000 6
#60400
0!
0*
#60500
1!
1*
b1000 5
b1000 6
#60600
0!
0*
#60700
1!
1*
b1000 5
b1000 6
#60800
0!
0*
#60900
1!
1*
b1000 5
b1000 6
#61000
0!
0*
#61100
1!
1*
b1000 5
b1000 6
#61200
0!
0*
#61300
1!
1*
b1000 5
b1000 6
#61400
0!
0*
#61500
1!
1*
b1000 5
b1000 6
#61600
0!
0*
#61700
1!
1*
b1000 5
b1000 6
#61800
0!
0*
#61900
1!
1*
b1000 5
b1000 6
#62000
0!
0*
#62100
1!
1*
b1000 5
b1000 6
#62200
0!
0*
#62300
1!
1*
b1000 5
b1000 6
#62400
0!
0*
#62500
1!
1*
b1000 5
b1000 6
#62600
0!
0*
#62700
1!
1*
b1000 5
b1000 6
#62800
0!
0*
#62900
1!
1*
b1000 5
b1000 6
#63000
0!
0*
#63100
1!
1*
b1000 5
b1000 6
#63200
0!
0*
#63300
1!
1*
b1000 5
b1000 6
#63400
0!
0*
#63500
1!
1*
b1000 5
b1000 6
#63600
0!
0*
#63700
1!
1*
b1000 5
b1000 6
#63800
0!
0*
#63900
1!
1*
b1000 5
b1000 6
#64000
0!
0*
#64100
1!
1*
b1000 5
b1000 6
#64200
0!
0*
#64300
1!
1*
b1000 5
b1000 6
#64400
0!
0*
#64500
1!
1*
b1000 5
b1000 6
#64600
0!
0*
#64700
1!
1*
b1000 5
b1000 6
#64800
0!
0*
#64900
1!
1*
b1000 5
b1000 6
#65000
0!
0*
#65100
1!
1*
b1000 5
b1000 6
#65200
0!
0*
#65300
1!
1*
b1000 5
b1000 6
#65400
0!
0*
#65500
1!
1*
b1000 5
b1000 6
#65600
0!
0*
#65700
1!
1*
b1000 5
b1000 6
#65800
0!
0*
#65900
1!
1*
b1000 5
b1000 6
#66000
0!
0*
#66100
1!
1*
b1000 5
b1000 6
#66200
0!
0*
#66300
1!
1*
b1000 5
b1000 6
#66400
0!
0*
#66500
1!
1*
b1000 5
b1000 6
#66600
0!
0*
#66700
1!
1*
b1000 5
b1000 6
#66800
0!
0*
#66900
1!
1*
b1000 5
b1000 6
#67000
0!
0*
#67100
1!
1*
b1000 5
b1000 6
#67200
0!
0*
#67300
1!
1*
b1000 5
b1000 6
#67400
0!
0*
#67500
1!
1*
b1000 5
b1000 6
#67600
0!
0*
#67700
1!
1*
b1000 5
b1000 6
#67800
0!
0*
#67900
1!
1*
b1000 5
b1000 6
#68000
0!
0*
#68100
1!
1*
b1000 5
b1000 6
#68200
0!
0*
#68300
1!
1*
b1000 5
b1000 6
#68400
0!
0*
#68500
1!
1*
b1000 5
b1000 6
#68600
0!
0*
#68700
1!
1*
b1000 5
b1000 6
#68800
0!
0*
#68900
1!
1*
b1000 5
b1000 6
#69000
0!
0*
#69100
1!
1*
b1000 5
b1000 6
#69200
0!
0*
#69300
1!
1*
b1000 5
b1000 6
#69400
0!
0*
#69500
1!
1*
b1000 5
b1000 6
#69600
0!
0*
#69700
1!
1*
b1000 5
b1000 6
#69800
0!
0*
#69900
1!
1*
b1000 5
b1000 6
#70000
0!
0*
#70100
1!
1*
b1000 5
b1000 6
#70200
0!
0*
#70300
1!
1*
b1000 5
b1000 6
#70400
0!
0*
#70500
1!
1*
b1000 5
b1000 6
#70600
0!
0*
#70700
1!
1*
b1000 5
b1000 6
#70800
0!
0*
#70900
1!
1*
b1000 5
b1000 6
#71000
0!
0*
#71100
1!
1*
b1000 5
b1000 6
#71200
0!
0*
#71300
1!
1*
b1000 5
b1000 6
#71400
0!
0*
#71500
1!
1*
b1000 5
b1000 6
#71600
0!
0*
#71700
1!
1*
b1000 5
b1000 6
#71800
0!
0*
#71900
1!
1*
b1000 5
b1000 6
#72000
0!
0*
#72100
1!
1*
b1000 5
b1000 6
#72200
0!
0*
#72300
1!
1*
b1000 5
b1000 6
#72400
0!
0*
#72500
1!
1*
b1000 5
b1000 6
#72600
0!
0*
#72700
1!
1*
b1000 5
b1000 6
#72800
0!
0*
#72900
1!
1*
b1000 5
b1000 6
#73000
0!
0*
#73100
1!
1*
b1000 5
b1000 6
#73200
0!
0*
#73300
1!
1*
b1000 5
b1000 6
#73400
0!
0*
#73500
1!
1*
b1000 5
b1000 6
#73600
0!
0*
#73700
1!
1*
b1000 5
b1000 6
#73800
0!
0*
#73900
1!
1*
b1000 5
b1000 6
#74000
0!
0*
#74100
1!
1*
b1000 5
b1000 6
#74200
0!
0*
#74300
1!
1*
b1000 5
b1000 6
#74400
0!
0*
#74500
1!
1*
b1000 5
b1000 6
#74600
0!
0*
#74700
1!
1*
b1000 5
b1000 6
#74800
0!
0*
#74900
1!
1*
b1000 5
b1000 6
#75000
0!
0*
#75100
1!
1*
b1000 5
b1000 6
#75200
0!
0*
#75300
1!
1*
b1000 5
b1000 6
#75400
0!
0*
#75500
1!
1*
b1000 5
b1000 6
#75600
0!
0*
#75700
1!
1*
b1000 5
b1000 6
#75800
0!
0*
#75900
1!
1*
b1000 5
b1000 6
#76000
0!
0*
#76100
1!
1*
b1000 5
b1000 6
#76200
0!
0*
#76300
1!
1*
b1000 5
b1000 6
#76400
0!
0*
#76500
1!
1*
b1000 5
b1000 6
#76600
0!
0*
#76700
1!
1*
b1000 5
b1000 6
#76800
0!
0*
#76900
1!
1*
b1000 5
b1000 6
#77000
0!
0*
#77100
1!
1*
b1000 5
b1000 6
#77200
0!
0*
#77300
1!
1*
b1000 5
b1000 6
#77400
0!
0*
#77500
1!
1*
b1000 5
b1000 6
#77600
0!
0*
#77700
1!
1*
b1000 5
b1000 6
#77800
0!
0*
#77900
1!
1*
b1000 5
b1000 6
#78000
0!
0*
#78100
1!
1*
b1000 5
b1000 6
#78200
0!
0*
#78300
1!
1*
b1000 5
b1000 6
#78400
0!
0*
#78500
1!
1*
b1000 5
b1000 6
#78600
0!
0*
#78700
1!
1*
b1000 5
b1000 6
#78800
0!
0*
#78900
1!
1*
b1000 5
b1000 6
#79000
0!
0*
#79100
1!
1*
b1000 5
b1000 6
#79200
0!
0*
#79300
1!
1*
b1000 5
b1000 6
#79400
0!
0*
#79500
1!
1*
b1000 5
b1000 6
#79600
0!
0*
#79700
1!
1*
b1000 5
b1000 6
#79800
0!
0*
#79900
1!
1*
b1000 5
b1000 6
#80000
0!
0*
#80100
1!
1*
b1000 5
b1000 6
#80200
0!
0*
#80300
1!
1*
b1000 5
b1000 6
#80400
0!
0*
#80500
1!
1*
b1000 5
b1000 6
#80600
0!
0*
#80700
1!
1*
b1000 5
b1000 6
#80800
0!
0*
#80900
1!
1*
b1000 5
b1000 6
#81000
0!
0*
#81100
1!
1*
b1000 5
b1000 6
#81200
0!
0*
#81300
1!
1*
b1000 5
b1000 6
#81400
0!
0*
#81500
1!
1*
b1000 5
b1000 6
#81600
0!
0*
#81700
1!
1*
b1000 5
b1000 6
#81800
0!
0*
#81900
1!
1*
b1000 5
b1000 6
#82000
0!
0*
#82100
1!
1*
b1000 5
b1000 6
#82200
0!
0*
#82300
1!
1*
b1000 5
b1000 6
#82400
0!
0*
#82500
1!
1*
b1000 5
b1000 6
#82600
0!
0*
#82700
1!
1*
b1000 5
b1000 6
#82800
0!
0*
#82900
1!
1*
b1000 5
b1000 6
#83000
0!
0*
#83100
1!
1*
b1000 5
b1000 6
#83200
0!
0*
#83300
1!
1*
b1000 5
b1000 6
#83400
0!
0*
#83500
1!
1*
b1000 5
b1000 6
#83600
0!
0*
#83700
1!
1*
b1000 5
b1000 6
#83800
0!
0*
#83900
1!
1*
b1000 5
b1000 6
#84000
0!
0*
#84100
1!
1*
b1000 5
b1000 6
#84200
0!
0*
#84300
1!
1*
b1000 5
b1000 6
#84400
0!
0*
#84500
1!
1*
b1000 5
b1000 6
#84600
0!
0*
#84700
1!
1*
b1000 5
b1000 6
#84800
0!
0*
#84900
1!
1*
b1000 5
b1000 6
#85000
0!
0*
#85100
1!
1*
b1000 5
b1000 6
#85200
0!
0*
#85300
1!
1*
b1000 5
b1000 6
#85400
0!
0*
#85500
1!
1*
b1000 5
b1000 6
#85600
0!
0*
#85700
1!
1*
b1000 5
b1000 6
#85800
0!
0*
#85900
1!
1*
b1000 5
b1000 6
#86000
0!
0*
#86100
1!
1*
b1000 5
b1000 6
#86200
0!
0*
#86300
1!
1*
b1000 5
b1000 6
#86400
0!
0*
#86500
1!
1*
b1000 5
b1000 6
#86600
0!
0*
#86700
1!
1*
b1000 5
b1000 6
#86800
0!
0*
#86900
1!
1*
b1000 5
b1000 6
#87000
0!
0*
#87100
1!
1*
b1000 5
b1000 6
#87200
0!
0*
#87300
1!
1*
b1000 5
b1000 6
#87400
0!
0*
#87500
1!
1*
b1000 5
b1000 6
#87600
0!
0*
#87700
1!
1*
b1000 5
b1000 6
#87800
0!
0*
#87900
1!
1*
b1000 5
b1000 6
#88000
0!
0*
#88100
1!
1*
b1000 5
b1000 6
#88200
0!
0*
#88300
1!
1*
b1000 5
b1000 6
#88400
0!
0*
#88500
1!
1*
b1000 5
b1000 6
#88600
0!
0*
#88700
1!
1*
b1000 5
b1000 6
#88800
0!
0*
#88900
1!
1*
b1000 5
b1000 6
#89000
0!
0*
#89100
1!
1*
b1000 5
b1000 6
#89200
0!
0*
#89300
1!
1*
b1000 5
b1000 6
#89400
0!
0*
